LAPORAN NILAI BARANG

Tanggal Cetak:,2018-07-29 17:39:38
Jumlah Sku:,1
Jumlah Total Barang:,12
Jumlah Nilai:,756000

SKU,Nama Item,Jumlah,Rata-Rata Harga Beli,Total
SSI-D00864652-SS-NAV,"Deklia Plain Casual Blouse (S,Navy)",12,63000,756000
